{
 "align_labels_right": 0, 
 "creation": "2019-02-01 10:36:11.679129", 
 "custom_format": 1, 
 "disabled": 0, 
 "doc_type": "Employee Advance", 
 "docstatus": 0, 
 "doctype": "Print Format", 
 "font": "Default", 
 "format_data": "[{\"fieldname\": \"print_heading_template\", \"fieldtype\": \"Custom HTML\", \"options\": \"<table>\\n  <tr>\\n    <td><img src=\\\"/files/sfp-drilling-logo.jpg\\\" height=\\\"80\\\" width=\\\"330\\\"></td>\\n    <td style=\\\"width: 70%; text-align: right;\\\"><h2>Solicitud de Fondos<br><small>{{ doc.name }}</small>\\t\\t\\t\\t</h2></td>\\n  </tr>\\n</table>\\n<table class=\\\"print-heading\\\" style=\\\"width:100%\\\">\\n  <tr>\\n    <td>{{ doc.company }}</td>\\n    <td>R.U.C.: 20514165972</td>\\n    <td>Tel\\u00e9fono: 234-1439 / 255-5701</td>    \\n    <tr><td colspan=\\\"3\\\"><h6>Direccion: Jr. Morro Solar 1010. Urb. Juan Pablo de Monterrico (Piso 3), Santiago de Surco, Lima \\u2013Per\\u00fa</td></tr>\\t\\n</table>\\n\"}, {\"fieldtype\": \"Section Break\", \"label\": \"\"}, {\"fieldtype\": \"Column Break\"}, {\"print_hide\": 0, \"fieldname\": \"employee\", \"align\": \"left\", \"label\": \"Codigo\"}, {\"print_hide\": 0, \"fieldname\": \"employee_name\", \"align\": \"left\", \"label\": \"Empleado\"}, {\"fieldtype\": \"Column Break\"}, {\"print_hide\": 0, \"fieldname\": \"posting_date\", \"align\": \"left\", \"label\": \"Fecha\"}, {\"fieldtype\": \"Section Break\", \"label\": \"\"}, {\"fieldtype\": \"Column Break\"}, {\"print_hide\": 0, \"fieldname\": \"purpose\", \"label\": \"Purpose\"}, {\"fieldtype\": \"Column Break\"}, {\"print_hide\": 0, \"fieldname\": \"advance_amount\", \"label\": \"Advance Amount\"}, {\"print_hide\": 0, \"fieldname\": \"paid_amount\", \"label\": \"Paid Amount\"}, {\"fieldtype\": \"Section Break\", \"label\": \"\"}, {\"fieldtype\": \"Column Break\"}, {\"print_hide\": 0, \"fieldname\": \"status\", \"label\": \"Status\"}, {\"fieldtype\": \"Column Break\"}, {\"print_hide\": 0, \"fieldname\": \"advance_account\", \"label\": \"Advance Account\"}, {\"print_hide\": 0, \"fieldname\": \"mode_of_payment\", \"label\": \"Mode of Payment\"}]", 
 "idx": 0, 
 "line_breaks": 0, 
 "modified": "2019-02-01 13:17:34.124802", 
 "modified_by": "Administrator", 
 "module": "HR", 
 "name": "Solicitud de Fondos", 
 "owner": "manager@tidax.pe", 
 "parent": "Employee Advance", 
 "print_format_builder": 1, 
 "print_format_type": "Server", 
 "show_section_headings": 0, 
 "standard": "Yes"
}